Tarea_diplomado_Paula
…
## # A tibble: 6 × 12
##   Seasons time  Replicate  Chla  Chlc   Car    PC  DPPH Temperat…¹    pH Salin…²
##   <chr>   <chr> <chr>     <dbl> <dbl> <dbl> <dbl> <dbl>      <dbl> <dbl>   <dbl>
## 1 Autumn  day 1 R1         1.04 0.095 0.605  9.12  7.58       12.3  7.84    33.7
## 2 Autumn  day 1 R2         1.60 0.155 0.954 13.9   6.08       12.3  7.84    33.7
## 3 Autumn  day 1 R3         1.52 0.143 0.931 15.8   7.81       12.3  7.84    33.7
## 4 Autumn  day 1 R4         1.48 0.152 0.905 19.9   7.02       12.3  7.85    17.9
## 5 Autumn  day 1 R5         1.14 0.108 0.694 19.8   7.20       12.3  7.85    17.9
## 6 Autumn  day 1 R6         1.17 0.115 0.752 21.6   5.12       12.3  7.85    17.9
## # … with 1 more variable: PAR <dbl>, and abbreviated variable names
## #   ¹​Temperature, ²​Salinity

select(Datos_Proyecto, Chla, Chlc, Car, DPPH)

## # A tibble: 108 × 4
##     Chla  Chlc   Car  DPPH
##    <dbl> <dbl> <dbl> <dbl>
##  1  1.04 0.095 0.605  7.58
##  2  1.60 0.155 0.954  6.08
##  3  1.52 0.143 0.931  7.81
##  4  1.48 0.152 0.905  7.02
##  5  1.14 0.108 0.694  7.20
##  6  1.17 0.115 0.752  5.12
##  7  1.38 0.148 0.884  6.24
##  8  1.17 0.105 0.659  6.47
##  9  1.08 0.102 0.62   6.38
## 10  1.49 0.134 0.937  4.07
## # … with 98 more rows
…
