Tarea_diplomado_Paula
…
Datos_Proyecto$Seasons <- as.factor(Datos_Proyecto$Seasons)
Datos_Proyecto$time <- as.factor(Datos_Proyecto$time)
Datos_Proyecto$Replicate <- as.factor(Datos_Proyecto$Replicate)

select(Datos_Proyecto, Chla, Chlc, Car, DPPH)

## # A tibble: 108 × 4
##     Chla  Chlc   Car  DPPH
##    <dbl> <dbl> <dbl> <dbl>
##  1  1.04 0.095 0.605  7.58
##  2  1.60 0.155 0.954  6.08
##  3  1.52 0.143 0.931  7.81
##  4  1.48 0.152 0.905  7.02
##  5  1.14 0.108 0.694  7.20
##  6  1.17 0.115 0.752  5.12
##  7  1.38 0.148 0.884  6.24
##  8  1.17 0.105 0.659  6.47
##  9  1.08 0.102 0.62   6.38
## 10  1.49 0.134 0.937  4.07
## # … with 98 more rows
…
